{{< var course_title >}} – Data Handle
…
AlcoholDay
Average number of drinks consumed on days that participant drank alcoholic beverages. Reported for participants aged 18 years or older.

AlcoholYear
Estimated number of days over the past year that participant drank alcoholic beverages. Reported for participants aged 18 years or older.

SmokingStatus
Smoking status: Current Former or Never.

import data to tibbles

nh <- read_csv(file="nhanes.csv")
nh

# A tibble: 5,000 × 32
      id Gender   Age Race    Education MaritalStatus RelationshipStatus Insured
   <dbl> <chr>  <dbl> <chr>   <chr>     <chr>         <chr>              <chr>  
 1 62163 male      14 Asian   <NA>      <NA>          <NA>               Yes    
 2 62172 female    43 Black   High Sch… NeverMarried  Single             Yes    
 3 62174 male      80 White   College … Married       Committed          Yes    
 4 62174 male      80 White   College … Married       Committed          Yes    
 5 62175 male       5 White   <NA>      <NA>          <NA>               Yes    
 6 62176 female    34 White   College … Married       Committed          Yes    
 7 62178 male      80 White   High Sch… Widowed       Single             Yes    
 8 62180 male      35 White   College … Married       Committed          Yes    
 9 62186 female    17 Black   <NA>      <NA>          <NA>               Yes    
10 62190 female    15 Mexican <NA>      <NA>          <NA>               Yes    
# ℹ 4,990 more rows
# ℹ 24 more variables: Income <dbl>, Poverty <dbl>, HomeRooms <dbl>,
#   HomeOwn <chr>, Work <chr>, Weight <dbl>, Height <dbl>, BMI <dbl>,
#   Pulse <dbl>, BPSys <dbl>, BPDia <dbl>, Testosterone <dbl>, HDLChol <dbl>,
#   TotChol <dbl>, Diabetes <chr>, DiabetesAge <dbl>, nPregnancies <dbl>,
#   nBabies <dbl>, SleepHrsNight <dbl>, PhysActive <chr>, PhysActiveDays <dbl>,
#   AlcoholDay <dbl>, AlcoholYear <dbl>, SmokingStatus <chr>
…
Select Rows by column value

nh[nh$Gender == 'male',]

# A tibble: 2,505 × 32
      id Gender   Age Race  Education   MaritalStatus RelationshipStatus Insured
   <dbl> <chr>  <dbl> <chr> <chr>       <chr>         <chr>              <chr>  
 1 62163 male      14 Asian <NA>        <NA>          <NA>               Yes    
 2 62174 male      80 White College Gr… Married       Committed          Yes    
 3 62174 male      80 White College Gr… Married       Committed          Yes    
 4 62175 male       5 White <NA>        <NA>          <NA>               Yes    
 5 62178 male      80 White High School Widowed       Single             Yes    
 6 62180 male      35 White College Gr… Married       Committed          Yes    
 7 62199 male      57 White College Gr… LivePartner   Committed          Yes    
 8 62199 male      57 White College Gr… LivePartner   Committed          Yes    
 9 62199 male      57 White College Gr… LivePartner   Committed          Yes    
10 62199 male      57 White College Gr… LivePartner   Committed          Yes    
# ℹ 2,495 more rows
# ℹ 24 more variables: Income <dbl>, Poverty <dbl>, HomeRooms <dbl>,
#   HomeOwn <chr>, Work <chr>, Weight <dbl>, Height <dbl>, BMI <dbl>,
#   Pulse <dbl>, BPSys <dbl>, BPDia <dbl>, Testosterone <dbl>, HDLChol <dbl>,
#   TotChol <dbl>, Diabetes <chr>, DiabetesAge <dbl>, nPregnancies <dbl>,
#   nBabies <dbl>, SleepHrsNight <dbl>, PhysActive <chr>, PhysActiveDays <dbl>,
#   AlcoholDay <dbl>, AlcoholYear <dbl>, SmokingStatus <chr>

Select Rows by checking values on multiple columns

nh[nh$Gender == 'male' & nh$Weight > 50,]

# A tibble: 2,041 × 32
      id Gender   Age Race  Education   MaritalStatus RelationshipStatus Insured
   <dbl> <chr>  <dbl> <chr> <chr>       <chr>         <chr>              <chr>  
 1 62174 male      80 White College Gr… Married       Committed          Yes    
 2 62174 male      80 White College Gr… Married       Committed          Yes    
 3 62178 male      80 White High School Widowed       Single             Yes    
 4 62180 male      35 White College Gr… Married       Committed          Yes    
 5 62199 male      57 White College Gr… LivePartner   Committed          Yes    
 6 62199 male      57 White College Gr… LivePartner   Committed          Yes    
 7 62199 male      57 White College Gr… LivePartner   Committed          Yes    
 8 62199 male      57 White College Gr… LivePartner   Committed          Yes    
 9 62205 male      28 White College Gr… NeverMarried  Single             Yes    
10 62205 male      28 White College Gr… NeverMarried  Single             Yes    
# ℹ 2,031 more rows
# ℹ 24 more variables: Income <dbl>, Poverty <dbl>, HomeRooms <dbl>,
#   HomeOwn <chr>, Work <chr>, Weight <dbl>, Height <dbl>, BMI <dbl>,
#   Pulse <dbl>, BPSys <dbl>, BPDia <dbl>, Testosterone <dbl>, HDLChol <dbl>,
#   TotChol <dbl>, Diabetes <chr>, DiabetesAge <dbl>, nPregnancies <dbl>,
#   nBabies <dbl>, SleepHrsNight <dbl>, PhysActive <chr>, PhysActiveDays <dbl>,
#   AlcoholDay <dbl>, AlcoholYear <dbl>, SmokingStatus <chr>

Select Rows by list of column values

nh[nh$Race %in% c('Mexican', 'Hispanic', 'White'),]

# A tibble: 3,965 × 32
      id Gender   Age Race    Education MaritalStatus RelationshipStatus Insured
   <dbl> <chr>  <dbl> <chr>   <chr>     <chr>         <chr>              <chr>  
 1 62174 male      80 White   College … Married       Committed          Yes    
 2 62174 male      80 White   College … Married       Committed          Yes    
 3 62175 male       5 White   <NA>      <NA>          <NA>               Yes    
 4 62176 female    34 White   College … Married       Committed          Yes    
 5 62178 male      80 White   High Sch… Widowed       Single             Yes    
 6 62180 male      35 White   College … Married       Committed          Yes    
 7 62190 female    15 Mexican <NA>      <NA>          <NA>               Yes    
 8 62199 male      57 White   College … LivePartner   Committed          Yes    
 9 62199 male      57 White   College … LivePartner   Committed          Yes    
10 62199 male      57 White   College … LivePartner   Committed          Yes    
# ℹ 3,955 more rows
# ℹ 24 more variables: Income <dbl>, Poverty <dbl>, HomeRooms <dbl>,
#   HomeOwn <chr>, Work <chr>, Weight <dbl>, Height <dbl>, BMI <dbl>,
#   Pulse <dbl>, BPSys <dbl>, BPDia <dbl>, Testosterone <dbl>, HDLChol <dbl>,
#   TotChol <dbl>, Diabetes <chr>, DiabetesAge <dbl>, nPregnancies <dbl>,
#   nBabies <dbl>, SleepHrsNight <dbl>, PhysActive <chr>, PhysActiveDays <dbl>,
#   AlcoholDay <dbl>, AlcoholYear <dbl>, SmokingStatus <chr>
…
filter: example

nh %>% filter(Gender=="male" & Weight>=50)

# A tibble: 2,034 × 32
      id Gender   Age Race  Education   MaritalStatus RelationshipStatus Insured
   <dbl> <chr>  <dbl> <chr> <chr>       <chr>         <chr>              <chr>  
 1 62174 male      80 White College Gr… Married       Committed          Yes    
 2 62174 male      80 White College Gr… Married       Committed          Yes    
 3 62178 male      80 White High School Widowed       Single             Yes    
 4 62180 male      35 White College Gr… Married       Committed          Yes    
 5 62199 male      57 White College Gr… LivePartner   Committed          Yes    
 6 62199 male      57 White College Gr… LivePartner   Committed          Yes    
 7 62199 male      57 White College Gr… LivePartner   Committed          Yes    
 8 62199 male      57 White College Gr… LivePartner   Committed          Yes    
 9 62205 male      28 White College Gr… NeverMarried  Single             Yes    
10 62205 male      28 White College Gr… NeverMarried  Single             Yes    
# ℹ 2,024 more rows
# ℹ 24 more variables: Income <dbl>, Poverty <dbl>, HomeRooms <dbl>,
#   HomeOwn <chr>, Work <chr>, Weight <dbl>, Height <dbl>, BMI <dbl>,
#   Pulse <dbl>, BPSys <dbl>, BPDia <dbl>, Testosterone <dbl>, HDLChol <dbl>,
#   TotChol <dbl>, Diabetes <chr>, DiabetesAge <dbl>, nPregnancies <dbl>,
#   nBabies <dbl>, SleepHrsNight <dbl>, PhysActive <chr>, PhysActiveDays <dbl>,
#   AlcoholDay <dbl>, AlcoholYear <dbl>, SmokingStatus <chr>

select

Select specific column

select: select column

nh %>% select(Gender, Weight)

# A tibble: 5,000 × 2
   Gender Weight
   <chr>   <dbl>
 1 male     49.4
 2 female   98.6
 3 male     95.8
 4 male     95.8
 5 male     23.9
 6 female   68.7
 7 male     85.9
 8 male     89  
 9 female   63.5
10 female   38.5
# ℹ 4,990 more rows

select: exclude column

nh %>% select(-Gender, -Weight)

# A tibble: 5,000 × 30
      id   Age Race    Education MaritalStatus RelationshipStatus Insured Income
   <dbl> <dbl> <chr>   <chr>     <chr>         <chr>              <chr>    <dbl>
 1 62163    14 Asian   <NA>      <NA>          <NA>               Yes     100000
 2 62172    43 Black   High Sch… NeverMarried  Single             Yes      22500
 3 62174    80 White   College … Married       Committed          Yes      70000
 4 62174    80 White   College … Married       Committed          Yes      70000
 5 62175     5 White   <NA>      <NA>          <NA>               Yes      12500
 6 62176    34 White   College … Married       Committed          Yes     100000
 7 62178    80 White   High Sch… Widowed       Single             Yes       2500
 8 62180    35 White   College … Married       Committed          Yes      22500
 9 62186    17 Black   <NA>      <NA>          <NA>               Yes      22500
10 62190    15 Mexican <NA>      <NA>          <NA>               Yes      30000
# ℹ 4,990 more rows
# ℹ 22 more variables: Poverty <dbl>, HomeRooms <dbl>, HomeOwn <chr>,
#   Work <chr>, Height <dbl>, BMI <dbl>, Pulse <dbl>, BPSys <dbl>, BPDia <dbl>,
#   Testosterone <dbl>, HDLChol <dbl>, TotChol <dbl>, Diabetes <chr>,
#   DiabetesAge <dbl>, nPregnancies <dbl>, nBabies <dbl>, SleepHrsNight <dbl>,
#   PhysActive <chr>, PhysActiveDays <dbl>, AlcoholDay <dbl>,
#   AlcoholYear <dbl>, SmokingStatus <chr>

mutate

add new column

nh %>% mutate(BMI_2=Weight/(Height*100)^2)

# A tibble: 5,000 × 33
      id Gender   Age Race    Education MaritalStatus RelationshipStatus Insured
   <dbl> <chr>  <dbl> <chr>   <chr>     <chr>         <chr>              <chr>  
 1 62163 male      14 Asian   <NA>      <NA>          <NA>               Yes    
 2 62172 female    43 Black   High Sch… NeverMarried  Single             Yes    
 3 62174 male      80 White   College … Married       Committed          Yes    
 4 62174 male      80 White   College … Married       Committed          Yes    
 5 62175 male       5 White   <NA>      <NA>          <NA>               Yes    
 6 62176 female    34 White   College … Married       Committed          Yes    
 7 62178 male      80 White   High Sch… Widowed       Single             Yes    
 8 62180 male      35 White   College … Married       Committed          Yes    
 9 62186 female    17 Black   <NA>      <NA>          <NA>               Yes    
10 62190 female    15 Mexican <NA>      <NA>          <NA>               Yes    
# ℹ 4,990 more rows
# ℹ 25 more variables: Income <dbl>, Poverty <dbl>, HomeRooms <dbl>,
#   HomeOwn <chr>, Work <chr>, Weight <dbl>, Height <dbl>, BMI <dbl>,
#   Pulse <dbl>, BPSys <dbl>, BPDia <dbl>, Testosterone <dbl>, HDLChol <dbl>,
#   TotChol <dbl>, Diabetes <chr>, DiabetesAge <dbl>, nPregnancies <dbl>,
#   nBabies <dbl>, SleepHrsNight <dbl>, PhysActive <chr>, PhysActiveDays <dbl>,
#   AlcoholDay <dbl>, AlcoholYear <dbl>, SmokingStatus <chr>, BMI_2 <dbl>

arrange

sort by column

arrange by BMI ascending

nh %>% arrange(BMI)

# A tibble: 5,000 × 32
      id Gender   Age Race    Education MaritalStatus RelationshipStatus Insured
   <dbl> <chr>  <dbl> <chr>   <chr>     <chr>         <chr>              <chr>  
 1 64250 female     3 Mexican <NA>      <NA>          <NA>               No     
 2 64751 male       9 White   <NA>      <NA>          <NA>               Yes    
 3 64751 male       9 White   <NA>      <NA>          <NA>               Yes    
 4 64751 male       9 White   <NA>      <NA>          <NA>               Yes    
 5 68504 female     6 White   <NA>      <NA>          <NA>               Yes    
 6 68742 female     3 Hispan… <NA>      <NA>          <NA>               Yes    
 7 69792 male       5 Black   <NA>      <NA>          <NA>               Yes    
 8 69792 male       5 Black   <NA>      <NA>          <NA>               Yes    
 9 62276 male       9 White   <NA>      <NA>          <NA>               Yes    
10 66038 female     2 Mexican <NA>      <NA>          <NA>               Yes    
# ℹ 4,990 more rows
# ℹ 24 more variables: Income <dbl>, Poverty <dbl>, HomeRooms <dbl>,
#   HomeOwn <chr>, Work <chr>, Weight <dbl>, Height <dbl>, BMI <dbl>,
#   Pulse <dbl>, BPSys <dbl>, BPDia <dbl>, Testosterone <dbl>, HDLChol <dbl>,
#   TotChol <dbl>, Diabetes <chr>, DiabetesAge <dbl>, nPregnancies <dbl>,
#   nBabies <dbl>, SleepHrsNight <dbl>, PhysActive <chr>, PhysActiveDays <dbl>,
#   AlcoholDay <dbl>, AlcoholYear <dbl>, SmokingStatus <chr>

arrange by BMI descending

nh %>% arrange(desc(BMI))

# A tibble: 5,000 × 32
      id Gender   Age Race  Education   MaritalStatus RelationshipStatus Insured
   <dbl> <chr>  <dbl> <chr> <chr>       <chr>         <chr>              <chr>  
 1 70466 female    25 White High School LivePartner   Committed          Yes    
 2 69207 female    30 Black High School NeverMarried  Single             Yes    
 3 70026 male      31 Black Some Colle… NeverMarried  Single             Yes    
 4 68256 female    46 Black Some Colle… Married       Committed          Yes    
 5 66873 female    54 White Some Colle… Married       Committed          Yes    
 6 66873 female    54 White Some Colle… Married       Committed          Yes    
 7 63215 female    62 Black Some Colle… Divorced      Single             Yes    
 8 65537 male      21 White High School NeverMarried  Single             No     
 9 65537 male      21 White High School NeverMarried  Single             No     
10 65537 male      21 White High School NeverMarried  Single             No     
# ℹ 4,990 more rows
# ℹ 24 more variables: Income <dbl>, Poverty <dbl>, HomeRooms <dbl>,
#   HomeOwn <chr>, Work <chr>, Weight <dbl>, Height <dbl>, BMI <dbl>,
#   Pulse <dbl>, BPSys <dbl>, BPDia <dbl>, Testosterone <dbl>, HDLChol <dbl>,
#   TotChol <dbl>, Diabetes <chr>, DiabetesAge <dbl>, nPregnancies <dbl>,
#   nBabies <dbl>, SleepHrsNight <dbl>, PhysActive <chr>, PhysActiveDays <dbl>,
#   AlcoholDay <dbl>, AlcoholYear <dbl>, SmokingStatus <chr>

group_by

group by data in column(s)

nh %>% 
  group_by(Gender, Race) %>% 
  ungroup

# A tibble: 5,000 × 32
      id Gender   Age Race    Education MaritalStatus RelationshipStatus Insured
   <dbl> <chr>  <dbl> <chr>   <chr>     <chr>         <chr>              <chr>  
 1 62163 male      14 Asian   <NA>      <NA>          <NA>               Yes    
 2 62172 female    43 Black   High Sch… NeverMarried  Single             Yes    
 3 62174 male      80 White   College … Married       Committed          Yes    
 4 62174 male      80 White   College … Married       Committed          Yes    
 5 62175 male       5 White   <NA>      <NA>          <NA>               Yes    
 6 62176 female    34 White   College … Married       Committed          Yes    
 7 62178 male      80 White   High Sch… Widowed       Single             Yes    
 8 62180 male      35 White   College … Married       Committed          Yes    
 9 62186 female    17 Black   <NA>      <NA>          <NA>               Yes    
10 62190 female    15 Mexican <NA>      <NA>          <NA>               Yes    
# ℹ 4,990 more rows
# ℹ 24 more variables: Income <dbl>, Poverty <dbl>, HomeRooms <dbl>,
#   HomeOwn <chr>, Work <chr>, Weight <dbl>, Height <dbl>, BMI <dbl>,
#   Pulse <dbl>, BPSys <dbl>, BPDia <dbl>, Testosterone <dbl>, HDLChol <dbl>,
#   TotChol <dbl>, Diabetes <chr>, DiabetesAge <dbl>, nPregnancies <dbl>,
#   nBabies <dbl>, SleepHrsNight <dbl>, PhysActive <chr>, PhysActiveDays <dbl>,
#   AlcoholDay <dbl>, AlcoholYear <dbl>, SmokingStatus <chr>
…
